Tools for Running Multiverse Style Analyses • multitool
…
# expand the pipeline
expanded_pipeline <- expand_decisions(full_pipeline)
expanded_pipeline
#> # A tibble: 48 × 4
#>    decision variables        filters          models          
#>    <chr>    <list>           <list>           <list>          
#>  1 1        <tibble [1 × 2]> <tibble [1 × 3]> <tibble [1 × 2]>
#>  2 2        <tibble [1 × 2]> <tibble [1 × 3]> <tibble [1 × 2]>
#>  3 3        <tibble [1 × 2]> <tibble [1 × 3]> <tibble [1 × 2]>
#>  4 4        <tibble [1 × 2]> <tibble [1 × 3]> <tibble [1 × 2]>
#>  5 5        <tibble [1 × 2]> <tibble [1 × 3]> <tibble [1 × 2]>
#>  6 6        <tibble [1 × 2]> <tibble [1 × 3]> <tibble [1 × 2]>
#>  7 7        <tibble [1 × 2]> <tibble [1 × 3]> <tibble [1 × 2]>
#>  8 8        <tibble [1 × 2]> <tibble [1 × 3]> <tibble [1 × 2]>
#>  9 9        <tibble [1 × 2]> <tibble [1 × 3]> <tibble [1 × 2]>
#> 10 10       <tibble [1 × 2]> <tibble [1 × 3]> <tibble [1 × 2]>
#> # ℹ 38 more rows

# Use your blueprint to run the multiverse
multiverse_results <- run_multiverse(expanded_pipeline)
multiverse_results
#> # A tibble: 48 × 3
#>    decision specifications   model_fitted    
#>    <chr>    <list>           <list>          
#>  1 1        <tibble [1 × 4]> <tibble [1 × 5]>
#>  2 2        <tibble [1 × 4]> <tibble [1 × 5]>
#>  3 3        <tibble [1 × 4]> <tibble [1 × 5]>
#>  4 4        <tibble [1 × 4]> <tibble [1 × 5]>
#>  5 5        <tibble [1 × 4]> <tibble [1 × 5]>
#>  6 6        <tibble [1 × 4]> <tibble [1 × 5]>
#>  7 7        <tibble [1 × 4]> <tibble [1 × 5]>
#>  8 8        <tibble [1 × 4]> <tibble [1 × 5]>
#>  9 9        <tibble [1 × 4]> <tibble [1 × 5]>
#> 10 10       <tibble [1 × 4]> <tibble [1 × 5]>
#> # ℹ 38 more rows

# Unpack some results
multiverse_results |> 
  reveal(.what = model_fitted, .which = lm_params, .unpack_specs = TRUE)
#> # A tibble: 192 × 18
#>    decision ivs   dvs   include1  include2 include3 model model_meta filter_code
#>    <chr>    <chr> <chr> <chr>     <chr>    <chr>    <chr> <chr>      <glue>     
#>  1 1        iv1   dv1   include1… include… include… lm(d… linear mo… the_data |…
#>  2 1        iv1   dv1   include1… include… include… lm(d… linear mo… the_data |…
#>  3 1        iv1   dv1   include1… include… include… lm(d… linear mo… the_data |…
#>  4 1        iv1   dv1   include1… include… include… lm(d… linear mo… the_data |…
#>  5 2        iv1   dv2   include1… include… include… lm(d… linear mo… the_data |…
#>  6 2        iv1   dv2   include1… include… include… lm(d… linear mo… the_data |…
#>  7 2        iv1   dv2   include1… include… include… lm(d… linear mo… the_data |…
#>  8 2        iv1   dv2   include1… include… include… lm(d… linear mo… the_data |…
#>  9 3        iv2   dv1   include1… include… include… lm(d… linear mo… the_data |…
#> 10 3        iv2   dv1   include1… include… include… lm(d… linear mo… the_data |…
#> # ℹ 182 more rows
#> # ℹ 9 more variables: parameter <chr>, coefficient <dbl>, se <dbl>, ci <dbl>,
#> #   ci_low <dbl>, ci_high <dbl>, t <dbl>, df_error <int>, p <dbl>
…
