…
``` r
2*2*2*3 == nrow(full_pipeline)
#> [1] TRUE
```

Our blueprint uses list columns to organize informatino. You can view
each list column by using `tidyr::unnest(<column name>)`. For example,
we can look at the filters:

``` r
full_pipeline |> unnest(filters)
#> # A tibble: 24 × 6
#>    decision variables        include1      include2             inclu…¹ models  
#>    <chr>    <list>           <chr>         <chr>                <chr>   <list>  
#>  1 1        <tibble [1 × 1]> include1 == 0 include2 != 3        scale(… <tibble>
#>  2 2        <tibble [1 × 1]> include1 == 0 include2 != 3        scale(… <tibble>
#>  3 3        <tibble [1 × 1]> include1 == 0 include2 != 3        scale(… <tibble>
#>  4 4        <tibble [1 × 1]> include1 == 0 include2 != 3        includ… <tibble>
#>  5 5        <tibble [1 × 1]> include1 == 0 include2 != 3        includ… <tibble>
#>  6 6        <tibble [1 × 1]> include1 == 0 include2 != 3        includ… <tibble>
#>  7 7        <tibble [1 × 1]> include1 == 0 include2 %in% uniqu… scale(… <tibble>
#>  8 8        <tibble [1 × 1]> include1 == 0 include2 %in% uniqu… scale(… <tibble>
#>  9 9        <tibble [1 × 1]> include1 == 0 include2 %in% uniqu… scale(… <tibble>
#> 10 10       <tibble [1 × 1]> include1 == 0 include2 %in% uniqu… includ… <tibble>
#> # … with 14 more rows, and abbreviated variable name ¹​include3
```

Or we could look at the models:

``` r
full_pipeline |> unnest(models)
#> # A tibble: 24 × 4
#>    decision variables        filters          model               
#>    <chr>    <list>           <list>           <chr>               
#>  1 1        <tibble [1 × 1]> <tibble [1 × 3]> lm(dv1 ~ iv1 * mod1)
#>  2 2        <tibble [1 × 1]> <tibble [1 × 3]> lm(dv1 ~ iv2 * mod1)
#>  3 3        <tibble [1 × 1]> <tibble [1 × 3]> lm(dv1 ~ iv3 * mod1)
#>  4 4        <tibble [1 × 1]> <tibble [1 × 3]> lm(dv1 ~ iv1 * mod1)
#>  5 5        <tibble [1 × 1]> <tibble [1 × 3]> lm(dv1 ~ iv2 * mod1)
#>  6 6        <tibble [1 × 1]> <tibble [1 × 3]> lm(dv1 ~ iv3 * mod1)
#>  7 7        <tibble [1 × 1]> <tibble [1 × 3]> lm(dv1 ~ iv1 * mod1)
#>  8 8        <tibble [1 × 1]> <tibble [1 × 3]> lm(dv1 ~ iv2 * mod1)
#>  9 9        <tibble [1 × 1]> <tibble [1 × 3]> lm(dv1 ~ iv3 * mod1)
#> 10 10       <tibble [1 × 1]> <tibble [1 × 3]> lm(dv1 ~ iv1 * mod1)
#> # … with 14 more rows
```

Notice that, with the `glue::glue()` syntax, different versions of our
predictors were inserted appropriately. You can check their
correspondence by using `unnest()` on both the models and variable list
columns:

``` r
full_pipeline |> unnest(c(variables, models))
#> # A tibble: 24 × 4
#>    decision ivs   filters          model               
#>    <chr>    <chr> <list>           <chr>               
#>  1 1        iv1   <tibble [1 × 3]> lm(dv1 ~ iv1 * mod1)
#>  2 2        iv2   <tibble [1 × 3]> lm(dv1 ~ iv2 * mod1)
#>  3 3        iv3   <tibble [1 × 3]> lm(dv1 ~ iv3 * mod1)
#>  4 4        iv1   <tibble [1 × 3]> lm(dv1 ~ iv1 * mod1)
#>  5 5        iv2   <tibble [1 × 3]> lm(dv1 ~ iv2 * mod1)
#>  6 6        iv3   <tibble [1 × 3]> lm(dv1 ~ iv3 * mod1)
#>  7 7        iv1   <tibble [1 × 3]> lm(dv1 ~ iv1 * mod1)
#>  8 8        iv2   <tibble [1 × 3]> lm(dv1 ~ iv2 * mod1)
#>  9 9        iv3   <tibble [1 × 3]> lm(dv1 ~ iv3 * mod1)
#> 10 10       iv1   <tibble [1 × 3]> lm(dv1 ~ iv1 * mod1)
#> # … with 14 more rows
```
…
## Implement your blueprint

Once you have built your full specification blueprint and feel
comfortable with how the pipeline is executed, you can implement a full
multiverse-style analysis.

Simply use `run_multiverse(<your pipeline object>)`:

``` r
multiverse_results <- run_multiverse(full_pipeline)
#> ■■■■■■■■■■■■■■■■■■■■■■■■■■ 83% | ETA: 0s
#> ■■■■■■■■■■■■■■■■■■■■■■■■■■■■■ 92% | ETA: 0s

multiverse_results
#> # A tibble: 24 × 3
#>    decision specifications   lm_fitted       
#>    <chr>    <list>           <list>          
#>  1 1        <tibble [1 × 3]> <tibble [1 × 5]>
#>  2 2        <tibble [1 × 3]> <tibble [1 × 5]>
#>  3 3        <tibble [1 × 3]> <tibble [1 × 5]>
#>  4 4        <tibble [1 × 3]> <tibble [1 × 5]>
#>  5 5        <tibble [1 × 3]> <tibble [1 × 5]>
#>  6 6        <tibble [1 × 3]> <tibble [1 × 5]>
#>  7 7        <tibble [1 × 3]> <tibble [1 × 5]>
#>  8 8        <tibble [1 × 3]> <tibble [1 × 5]>
#>  9 9        <tibble [1 × 3]> <tibble [1 × 5]>
#> 10 10       <tibble [1 × 3]> <tibble [1 × 5]>
#> # … with 14 more rows
```
…
Here, we ran a `lm()` so our results are contained in `lm_fitted`.

### Unpacking a multiverse analysis

There are two main ways to unpack and examine `multitool` results. The
first is by using `tidyr::unnest()` (similar to unpacking the
specification blueprint earlier).

#### Unnest

``` r
multiverse_results |> unnest(lm_fitted)
#> # A tibble: 24 × 7
#>    decision specifications   lm_code         lm_tidy  lm_gla…¹ lm_war…² lm_mes…³
#>    <chr>    <list>           <glue>          <list>   <list>   <list>   <list>  
#>  1 1        <tibble [1 × 3]> the_data |> fi… <tibble> <tibble> <tibble> <tibble>
#>  2 2        <tibble [1 × 3]> the_data |> fi… <tibble> <tibble> <tibble> <tibble>
#>  3 3        <tibble [1 × 3]> the_data |> fi… <tibble> <tibble> <tibble> <tibble>
#>  4 4        <tibble [1 × 3]> the_data |> fi… <tibble> <tibble> <tibble> <tibble>
#>  5 5        <tibble [1 × 3]> the_data |> fi… <tibble> <tibble> <tibble> <tibble>
#>  6 6        <tibble [1 × 3]> the_data |> fi… <tibble> <tibble> <tibble> <tibble>
#>  7 7        <tibble [1 × 3]> the_data |> fi… <tibble> <tibble> <tibble> <tibble>
#>  8 8        <tibble [1 × 3]> the_data |> fi… <tibble> <tibble> <tibble> <tibble>
#>  9 9        <tibble [1 × 3]> the_data |> fi… <tibble> <tibble> <tibble> <tibble>
#> 10 10       <tibble [1 × 3]> the_data |> fi… <tibble> <tibble> <tibble> <tibble>
#> # … with 14 more rows, and abbreviated variable names ¹​lm_glance, ²​lm_warnings,
#> #   ³​lm_messages
```

Inside a `<model function>_fitted` column (here `lm_fitted`),
`multitool` gives us 4 columns.

The first column is always the full code pipeline executed to return
that row’s set of results: `lm_code`. The next are results passed to
`broom` (if `tidy` and/or `glance` methods exist). For `lm`, we have
`lm_tidy` and `lm_glance`.

``` r
multiverse_results |> unnest(lm_fitted) |> unnest(lm_tidy)
#> # A tibble: 96 × 11
#>    decision specificati…¹ lm_code term  estim…² std.e…³ stati…⁴ p.value lm_gla…⁵
#>    <chr>    <list>        <glue>  <chr>   <dbl>   <dbl>   <dbl>   <dbl> <list>  
#>  1 1        <tibble>      the_da… (Int… -0.0473  0.0610  -0.776  0.438  <tibble>
#>  2 1        <tibble>      the_da… iv1    0.0169  0.0588   0.287  0.774  <tibble>
#>  3 1        <tibble>      the_da… mod1   0.0321  0.0646   0.497  0.619  <tibble>
#>  4 1        <tibble>      the_da… iv1:… -0.120   0.0716  -1.68   0.0941 <tibble>
#>  5 2        <tibble>      the_da… (Int… -0.0500  0.0612  -0.818  0.414  <tibble>
#>  6 2        <tibble>      the_da… iv2   -0.0106  0.0656  -0.161  0.872  <tibble>
#>  7 2        <tibble>      the_da… mod1   0.0265  0.0647   0.409  0.683  <tibble>
#>  8 2        <tibble>      the_da… iv2:…  0.0645  0.0618   1.04   0.297  <tibble>
#>  9 3        <tibble>      the_da… (Int… -0.0511  0.0609  -0.838  0.402  <tibble>
#> 10 3        <tibble>      the_da… iv3   -0.104   0.0618  -1.68   0.0940 <tibble>
#> # … with 86 more rows, 2 more variables: lm_warnings <list>,
#> #   lm_messages <list>, and abbreviated variable names ¹​specifications,
#> #   ²​estimate, ³​std.error, ⁴​statistic, ⁵​lm_glance
```

The `lm_tidy` (or `<model function>_tidy`) column gives us the main
results of `lm()` per decision. These include terms, estimates, standard
errors, and p-values. `lm_glance` (or `<model function>_glance`) column
gives us model fit statistics (among other things):

``` r
multiverse_results |> unnest(lm_fitted) |> unnest(lm_glance)
#> # A tibble: 24 × 18
#>    decision specificat…¹ lm_code lm_tidy  r.squ…² adj.r.…³ sigma stati…⁴ p.value
#>    <chr>    <list>       <glue>  <list>     <dbl>    <dbl> <dbl>   <dbl>   <dbl>
#>  1 1        <tibble>     the_da… <tibble> 1.07e-2  4.86e-4  1.04   1.05    0.372
#>  2 2        <tibble>     the_da… <tibble> 4.39e-3 -5.87e-3  1.05   0.428   0.733
#>  3 3        <tibble>     the_da… <tibble> 1.05e-2  2.50e-4  1.04   1.02    0.382
#>  4 4        <tibble>     the_da… <tibble> 1.07e-2  5.73e-4  1.04   1.06    0.368
#>  5 5        <tibble>     the_da… <tibble> 4.38e-3 -5.84e-3  1.04   0.429   0.733
#>  6 6        <tibble>     the_da… <tibble> 1.05e-2  3.01e-4  1.04   1.03    0.380
#>  7 7        <tibble>     the_da… <tibble> 6.81e-4 -5.95e-3  1.03   0.103   0.959
#>  8 8        <tibble>     the_da… <tibble> 1.20e-3 -5.43e-3  1.03   0.181   0.909
#>  9 9        <tibble>     the_da… <tibble> 2.63e-3 -3.98e-3  1.03   0.398   0.754
#> 10 10       <tibble>     the_da… <tibble> 6.74e-4 -5.93e-3  1.02   0.102   0.959
#> # … with 14 more rows, 9 more variables: df <dbl>, logLik <dbl>, AIC <dbl>,
#> #   BIC <dbl>, deviance <dbl>, df.residual <int>, nobs <int>,
#> #   lm_warnings <list>, lm_messages <list>, and abbreviated variable names
#> #   ¹​specifications, ²​r.squared, ³​adj.r.squared, ⁴​statistic
```

#### Reveal

I wrote wrappers around the `unnest()` workflow. The main function is
`reveal()`. Pass a multiverse results `tibble` to `reveal()` and tell it
which columns to grab by indicating the column name in the `.what`
argument:

``` r
multiverse_results |> reveal(.what = lm_fitted)
#> # A tibble: 24 × 7
#>    decision specifications   lm_code         lm_tidy  lm_gla…¹ lm_war…² lm_mes…³
#>    <chr>    <list>           <glue>          <list>   <list>   <list>   <list>  
#>  1 1        <tibble [1 × 3]> the_data |> fi… <tibble> <tibble> <tibble> <tibble>
#>  2 2        <tibble [1 × 3]> the_data |> fi… <tibble> <tibble> <tibble> <tibble>
#>  3 3        <tibble [1 × 3]> the_data |> fi… <tibble> <tibble> <tibble> <tibble>
#>  4 4        <tibble [1 × 3]> the_data |> fi… <tibble> <tibble> <tibble> <tibble>
#>  5 5        <tibble [1 × 3]> the_data |> fi… <tibble> <tibble> <tibble> <tibble>
#>  6 6        <tibble [1 × 3]> the_data |> fi… <tibble> <tibble> <tibble> <tibble>
#>  7 7        <tibble [1 × 3]> the_data |> fi… <tibble> <tibble> <tibble> <tibble>
#>  8 8        <tibble [1 × 3]> the_data |> fi… <tibble> <tibble> <tibble> <tibble>
#>  9 9        <tibble [1 × 3]> the_data |> fi… <tibble> <tibble> <tibble> <tibble>
#> 10 10       <tibble [1 × 3]> the_data |> fi… <tibble> <tibble> <tibble> <tibble>
#> # … with 14 more rows, and abbreviated variable names ¹​lm_glance, ²​lm_warnings,
#> #   ³​lm_messages
```

If you want to get straight to a tidied result you can specify a
sub-list with the `.which` argument:

``` r
multiverse_results |> reveal(.what = lm_fitted, .which = lm_tidy)
#> # A tibble: 96 × 7
#>    decision specifications   term        estimate std.error statistic p.value
#>    <chr>    <list>           <chr>          <dbl>     <dbl>     <dbl>   <dbl>
#>  1 1        <tibble [1 × 3]> (Intercept)  -0.0473    0.0610    -0.776  0.438 
#>  2 1        <tibble [1 × 3]> iv1           0.0169    0.0588     0.287  0.774 
#>  3 1        <tibble [1 × 3]> mod1          0.0321    0.0646     0.497  0.619 
#>  4 1        <tibble [1 × 3]> iv1:mod1     -0.120     0.0716    -1.68   0.0941
#>  5 2        <tibble [1 × 3]> (Intercept)  -0.0500    0.0612    -0.818  0.414 
#>  6 2        <tibble [1 × 3]> iv2          -0.0106    0.0656    -0.161  0.872 
#>  7 2        <tibble [1 × 3]> mod1          0.0265    0.0647     0.409  0.683 
#>  8 2        <tibble [1 × 3]> iv2:mod1      0.0645    0.0618     1.04   0.297 
#>  9 3        <tibble [1 × 3]> (Intercept)  -0.0511    0.0609    -0.838  0.402 
#> 10 3        <tibble [1 × 3]> iv3          -0.104     0.0618    -1.68   0.0940
#> # … with 86 more rows
```

You can also choose to expand your specification blueprint with
`.unpack_specs = TRUE` to see which decisions produced what result:

``` r
multiverse_results |> 
  reveal(.what = lm_fitted, .which = lm_tidy, .unpack_specs = TRUE)
#> # A tibble: 96 × 11
#>    decision ivs   include1   inclu…¹ inclu…² model term  estim…³ std.e…⁴ stati…⁵
#>    <chr>    <chr> <chr>      <chr>   <chr>   <chr> <chr>   <dbl>   <dbl>   <dbl>
#>  1 1        iv1   include1 … includ… scale(… lm(d… (Int… -0.0473  0.0610  -0.776
#>  2 1        iv1   include1 … includ… scale(… lm(d… iv1    0.0169  0.0588   0.287
#>  3 1        iv1   include1 … includ… scale(… lm(d… mod1   0.0321  0.0646   0.497
#>  4 1        iv1   include1 … includ… scale(… lm(d… iv1:… -0.120   0.0716  -1.68 
#>  5 2        iv2   include1 … includ… scale(… lm(d… (Int… -0.0500  0.0612  -0.818
#>  6 2        iv2   include1 … includ… scale(… lm(d… iv2   -0.0106  0.0656  -0.161
#>  7 2        iv2   include1 … includ… scale(… lm(d… mod1   0.0265  0.0647   0.409
#>  8 2        iv2   include1 … includ… scale(… lm(d… iv2:…  0.0645  0.0618   1.04 
#>  9 3        iv3   include1 … includ… scale(… lm(d… (Int… -0.0511  0.0609  -0.838
#> 10 3        iv3   include1 … includ… scale(… lm(d… iv3   -0.104   0.0618  -1.68 
#> # … with 86 more rows, 1 more variable: p.value <dbl>, and abbreviated variable
#> #   names ¹​include2, ²​include3, ³​estimate, ⁴​std.error, ⁵​statistic
```
…
