readme
…
full_pipeline <- 
  the_data |>
  add_filters(include1 == 0, include2 != 3, scale(include3) > -2.5) |> 
  add_variables(var_group = "ivs", iv1, iv2, iv3) |> 
  add_variables(var_group = "dvs", dv1, dv2) |> 
  add_model("linear model", lm({dvs} ~ {ivs} * mod))

my_blueprint <- blueprint(full_pipeline)

The final step in making your blueprint is expanding all your specifications into all possible combinations. You can do this by calling expand_decisions() at the end of your blueprint pipeline:

expanded_pipeline <- expand_decisions(full_pipeline)

expanded_pipeline
#> # A tibble: 48 × 4
#>    decision variables        filters          models          
#>    <chr>    <list>           <list>           <list>          
#>  1 1        <tibble [1 × 2]> <tibble [1 × 3]> <tibble [1 × 2]>
#>  2 2        <tibble [1 × 2]> <tibble [1 × 3]> <tibble [1 × 2]>
#>  3 3        <tibble [1 × 2]> <tibble [1 × 3]> <tibble [1 × 2]>
#>  4 4        <tibble [1 × 2]> <tibble [1 × 3]> <tibble [1 × 2]>
#>  5 5        <tibble [1 × 2]> <tibble [1 × 3]> <tibble [1 × 2]>
#>  6 6        <tibble [1 × 2]> <tibble [1 × 3]> <tibble [1 × 2]>
#>  7 7        <tibble [1 × 2]> <tibble [1 × 3]> <tibble [1 × 2]>
#>  8 8        <tibble [1 × 2]> <tibble [1 × 3]> <tibble [1 × 2]>
#>  9 9        <tibble [1 × 2]> <tibble [1 × 3]> <tibble [1 × 2]>
#> 10 10       <tibble [1 × 2]> <tibble [1 × 3]> <tibble [1 × 2]>
#> # … with 38 more rows

The result is an expanded tibble with 1 row per unique decision and columns for each major blueprint category. In our example, we have alternative variables (predictors and outcomes), filters (three exclusion alternatives), and a model to run.

Note that we have 3 exclusions (each with two combinations), 3 versions of our predictor, and 2 versions of our outcome. This means our blueprint should have 2*2*2*3*2 rows.

2*2*2*3*2 == nrow(full_pipeline)
#> [1] FALSE

Our blueprint uses list columns to organize information. You can view each list column by using tidyr::unnest(<column name>). For example, we can look at the filters:

expanded_pipeline |> unnest(filters)
#> # A tibble: 48 × 6
#>    decision variables        include1      include2      include3       models  
#>    <chr>    <list>           <chr>         <chr>         <chr>          <list>  
#>  1 1        <tibble [1 × 2]> include1 == 0 include2 != 3 scale(include… <tibble>
#>  2 2        <tibble [1 × 2]> include1 == 0 include2 != 3 scale(include… <tibble>
#>  3 3        <tibble [1 × 2]> include1 == 0 include2 != 3 scale(include… <tibble>
#>  4 4        <tibble [1 × 2]> include1 == 0 include2 != 3 scale(include… <tibble>
#>  5 5        <tibble [1 × 2]> include1 == 0 include2 != 3 scale(include… <tibble>
#>  6 6        <tibble [1 × 2]> include1 == 0 include2 != 3 scale(include… <tibble>
#>  7 7        <tibble [1 × 2]> include1 == 0 include2 != 3 include3 %in%… <tibble>
#>  8 8        <tibble [1 × 2]> include1 == 0 include2 != 3 include3 %in%… <tibble>
#>  9 9        <tibble [1 × 2]> include1 == 0 include2 != 3 include3 %in%… <tibble>
#> 10 10       <tibble [1 × 2]> include1 == 0 include2 != 3 include3 %in%… <tibble>
#> # … with 38 more rows

Or we could look at the models:

expanded_pipeline |> unnest(models)
#> # A tibble: 48 × 5
#>    decision variables        filters          model               model_meta  
#>    <chr>    <list>           <list>           <chr>               <chr>       
#>  1 1        <tibble [1 × 2]> <tibble [1 × 3]> lm(dv1 ~ iv1 * mod) linear model
#>  2 2        <tibble [1 × 2]> <tibble [1 × 3]> lm(dv2 ~ iv1 * mod) linear model
#>  3 3        <tibble [1 × 2]> <tibble [1 × 3]> lm(dv1 ~ iv2 * mod) linear model
#>  4 4        <tibble [1 × 2]> <tibble [1 × 3]> lm(dv2 ~ iv2 * mod) linear model
#>  5 5        <tibble [1 × 2]> <tibble [1 × 3]> lm(dv1 ~ iv3 * mod) linear model
#>  6 6        <tibble [1 × 2]> <tibble [1 × 3]> lm(dv2 ~ iv3 * mod) linear model
#>  7 7        <tibble [1 × 2]> <tibble [1 × 3]> lm(dv1 ~ iv1 * mod) linear model
#>  8 8        <tibble [1 × 2]> <tibble [1 × 3]> lm(dv2 ~ iv1 * mod) linear model
#>  9 9        <tibble [1 × 2]> <tibble [1 × 3]> lm(dv1 ~ iv2 * mod) linear model
#> 10 10       <tibble [1 × 2]> <tibble [1 × 3]> lm(dv2 ~ iv2 * mod) linear model
#> # … with 38 more rows

Notice that, with the glue::glue() syntax, different versions of our predictors and outcomes were inserted appropriately. You can check their correspondence by using unnest() on both the models and variable list columns:

expanded_pipeline |> unnest(c(variables, models))
#> # A tibble: 48 × 6
#>    decision ivs   dvs   filters          model               model_meta  
#>    <chr>    <chr> <chr> <list>           <chr>               <chr>       
#>  1 1        iv1   dv1   <tibble [1 × 3]> lm(dv1 ~ iv1 * mod) linear model
#>  2 2        iv1   dv2   <tibble [1 × 3]> lm(dv2 ~ iv1 * mod) linear model
#>  3 3        iv2   dv1   <tibble [1 × 3]> lm(dv1 ~ iv2 * mod) linear model
#>  4 4        iv2   dv2   <tibble [1 × 3]> lm(dv2 ~ iv2 * mod) linear model
#>  5 5        iv3   dv1   <tibble [1 × 3]> lm(dv1 ~ iv3 * mod) linear model
#>  6 6        iv3   dv2   <tibble [1 × 3]> lm(dv2 ~ iv3 * mod) linear model
#>  7 7        iv1   dv1   <tibble [1 × 3]> lm(dv1 ~ iv1 * mod) linear model
#>  8 8        iv1   dv2   <tibble [1 × 3]> lm(dv2 ~ iv1 * mod) linear model
#>  9 9        iv2   dv1   <tibble [1 × 3]> lm(dv1 ~ iv2 * mod) linear model
#> 10 10       iv2   dv2   <tibble [1 × 3]> lm(dv2 ~ iv2 * mod) linear model
#> # … with 38 more rows
…
Implement your blueprint

Once you have built your full specification blueprint and feel comfortable with how the pipeline is executed, you can implement a full multiverse-style analysis.

Simply use run_multiverse(<your pipeline object>):

multiverse_results <- run_multiverse(expanded_pipeline)
#> ■■■■■■■■■■■■■■■                   46% | ETA:  3s

multiverse_results
#> # A tibble: 48 × 3
#>    decision specifications   lm_fitted       
#>    <chr>    <list>           <list>          
#>  1 1        <tibble [1 × 3]> <tibble [1 × 5]>
#>  2 2        <tibble [1 × 3]> <tibble [1 × 5]>
#>  3 3        <tibble [1 × 3]> <tibble [1 × 5]>
#>  4 4        <tibble [1 × 3]> <tibble [1 × 5]>
#>  5 5        <tibble [1 × 3]> <tibble [1 × 5]>
#>  6 6        <tibble [1 × 3]> <tibble [1 × 5]>
#>  7 7        <tibble [1 × 3]> <tibble [1 × 5]>
#>  8 8        <tibble [1 × 3]> <tibble [1 × 5]>
#>  9 9        <tibble [1 × 3]> <tibble [1 × 5]>
#> 10 10       <tibble [1 × 3]> <tibble [1 × 5]>
#> # … with 38 more rows

The result will be another tibble with various list columns.

It will always contain a list column named specifications containing all the information you generated in your blueprint. Next, there will be one list column per model fitted, labelled with a suffix like so <function name>_fitted.

Here, we ran a lm() so our results are contained in lm_fitted.

Unpacking a multiverse analysis

There are two main ways to unpack and examine multitool results. The first is by using tidyr::unnest() (similar to unpacking the specification blueprint earlier).

Unnest

multiverse_results |> unnest(lm_fitted)
#> # A tibble: 48 × 7
#>    decision specifications   lm_code         lm_tidy  lm_gla…¹ lm_war…² lm_mes…³
#>    <chr>    <list>           <glue>          <list>   <list>   <list>   <list>  
#>  1 1        <tibble [1 × 3]> the_data |> fi… <tibble> <tibble> <tibble> <tibble>
#>  2 2        <tibble [1 × 3]> the_data |> fi… <tibble> <tibble> <tibble> <tibble>
#>  3 3        <tibble [1 × 3]> the_data |> fi… <tibble> <tibble> <tibble> <tibble>
#>  4 4        <tibble [1 × 3]> the_data |> fi… <tibble> <tibble> <tibble> <tibble>
#>  5 5        <tibble [1 × 3]> the_data |> fi… <tibble> <tibble> <tibble> <tibble>
#>  6 6        <tibble [1 × 3]> the_data |> fi… <tibble> <tibble> <tibble> <tibble>
#>  7 7        <tibble [1 × 3]> the_data |> fi… <tibble> <tibble> <tibble> <tibble>
#>  8 8        <tibble [1 × 3]> the_data |> fi… <tibble> <tibble> <tibble> <tibble>
#>  9 9        <tibble [1 × 3]> the_data |> fi… <tibble> <tibble> <tibble> <tibble>
#> 10 10       <tibble [1 × 3]> the_data |> fi… <tibble> <tibble> <tibble> <tibble>
#> # … with 38 more rows, and abbreviated variable names ¹​lm_glance, ²​lm_warnings,
#> #   ³​lm_messages

Inside a <model function>_fitted column (here lm_fitted), multitool gives us 4 columns.

The first column is always the full code pipeline that produced the results: lm_code. The next are results passed to broom (if tidy and/or glance methods exist). For lm, we have lm_tidy and lm_glance. Notice the naming convention: <model function>_tidy and <model function>_glance.

multiverse_results |> unnest(lm_fitted) |> unnest(lm_tidy)
#> # A tibble: 192 × 11
#>    decision specificat…¹ lm_code term  estimate std.e…² stati…³ p.value lm_gla…⁴
#>    <chr>    <list>       <glue>  <chr>    <dbl>   <dbl>   <dbl>   <dbl> <list>  
#>  1 1        <tibble>     the_da… (Int… -0.157    0.0575  -2.73  0.00675 <tibble>
#>  2 1        <tibble>     the_da… iv1   -0.0717   0.0571  -1.26  0.210   <tibble>
#>  3 1        <tibble>     the_da… mod    0.00588  0.0566   0.104 0.917   <tibble>
#>  4 1        <tibble>     the_da… iv1:…  0.0463   0.0597   0.776 0.438   <tibble>
#>  5 2        <tibble>     the_da… (Int… -0.0769   0.0605  -1.27  0.205   <tibble>
#>  6 2        <tibble>     the_da… iv1    0.0123   0.0601   0.206 0.837   <tibble>
#>  7 2        <tibble>     the_da… mod   -0.0236   0.0595  -0.396 0.692   <tibble>
#>  8 2        <tibble>     the_da… iv1:…  0.0928   0.0628   1.48  0.141   <tibble>
#>  9 3        <tibble>     the_da… (Int… -0.158    0.0578  -2.74  0.00650 <tibble>
#> 10 3        <tibble>     the_da… iv2    0.0339   0.0614   0.553 0.581   <tibble>
#> # … with 182 more rows, 2 more variables: lm_warnings <list>,
#> #   lm_messages <list>, and abbreviated variable names ¹​specifications,
#> #   ²​std.error, ³​statistic, ⁴​lm_glance

The lm_tidy (or <model function>_tidy) column gives us the main results of lm() per decision. These include terms, estimates, standard errors, and p-values. lm_glance (or <model function>_glance) column gives us model fit statistics (among other things):

multiverse_results |> unnest(lm_fitted) |> unnest(lm_glance)
#> # A tibble: 48 × 18
#>    decision specificat…¹ lm_code lm_tidy  r.squ…² adj.r.…³ sigma stati…⁴ p.value
#>    <chr>    <list>       <glue>  <list>     <dbl>    <dbl> <dbl>   <dbl>   <dbl>
#>  1 1        <tibble>     the_da… <tibble> 8.11e-3 -1.84e-3 1.00   0.815    0.487
#>  2 2        <tibble>     the_da… <tibble> 7.59e-3 -2.37e-3 1.05   0.762    0.516
#>  3 3        <tibble>     the_da… <tibble> 1.24e-3 -8.78e-3 1.00   0.124    0.946
#>  4 4        <tibble>     the_da… <tibble> 1.11e-2  1.14e-3 1.05   1.11     0.343
#>  5 5        <tibble>     the_da… <tibble> 1.15e-2  1.58e-3 0.999  1.16     0.326
#>  6 6        <tibble>     the_da… <tibble> 4.76e-4 -9.55e-3 1.06   0.0474   0.986
#>  7 7        <tibble>     the_da… <tibble> 7.77e-3 -2.16e-3 1.00   0.783    0.504
#>  8 8        <tibble>     the_da… <tibble> 7.33e-3 -2.60e-3 1.05   0.739    0.530
#>  9 9        <tibble>     the_da… <tibble> 1.69e-3 -8.29e-3 1.00   0.169    0.917
#> 10 10       <tibble>     the_da… <tibble> 1.05e-2  6.09e-4 1.05   1.06     0.366
#> # … with 38 more rows, 9 more variables: df <dbl>, logLik <dbl>, AIC <dbl>,
#> #   BIC <dbl>, deviance <dbl>, df.residual <int>, nobs <int>,
#> #   lm_warnings <list>, lm_messages <list>, and abbreviated variable names
#> #   ¹​specifications, ²​r.squared, ³​adj.r.squared, ⁴​statistic

Reveal

I wrote wrappers around the unnest() workflow. The main function is reveal(). Pass a multiverse results tibble to reveal() and tell it which columns to grab by indicating the column name in the .what argument:

multiverse_results |> reveal(.what = lm_fitted)
#> # A tibble: 48 × 7
#>    decision specifications   lm_code         lm_tidy  lm_gla…¹ lm_war…² lm_mes…³
#>    <chr>    <list>           <glue>          <list>   <list>   <list>   <list>  
#>  1 1        <tibble [1 × 3]> the_data |> fi… <tibble> <tibble> <tibble> <tibble>
#>  2 2        <tibble [1 × 3]> the_data |> fi… <tibble> <tibble> <tibble> <tibble>
#>  3 3        <tibble [1 × 3]> the_data |> fi… <tibble> <tibble> <tibble> <tibble>
#>  4 4        <tibble [1 × 3]> the_data |> fi… <tibble> <tibble> <tibble> <tibble>
#>  5 5        <tibble [1 × 3]> the_data |> fi… <tibble> <tibble> <tibble> <tibble>
#>  6 6        <tibble [1 × 3]> the_data |> fi… <tibble> <tibble> <tibble> <tibble>
#>  7 7        <tibble [1 × 3]> the_data |> fi… <tibble> <tibble> <tibble> <tibble>
#>  8 8        <tibble [1 × 3]> the_data |> fi… <tibble> <tibble> <tibble> <tibble>
#>  9 9        <tibble [1 × 3]> the_data |> fi… <tibble> <tibble> <tibble> <tibble>
#> 10 10       <tibble [1 × 3]> the_data |> fi… <tibble> <tibble> <tibble> <tibble>
#> # … with 38 more rows, and abbreviated variable names ¹​lm_glance, ²​lm_warnings,
#> #   ³​lm_messages

If you want to get straight to a tidied result you can specify a sub-list with the .which argument:

multiverse_results |> reveal(.what = lm_fitted, .which = lm_tidy)
#> # A tibble: 192 × 7
#>    decision specifications   term        estimate std.error statistic p.value
#>    <chr>    <list>           <chr>          <dbl>     <dbl>     <dbl>   <dbl>
#>  1 1        <tibble [1 × 3]> (Intercept) -0.157      0.0575    -2.73  0.00675
#>  2 1        <tibble [1 × 3]> iv1         -0.0717     0.0571    -1.26  0.210  
#>  3 1        <tibble [1 × 3]> mod          0.00588    0.0566     0.104 0.917  
#>  4 1        <tibble [1 × 3]> iv1:mod      0.0463     0.0597     0.776 0.438  
#>  5 2        <tibble [1 × 3]> (Intercept) -0.0769     0.0605    -1.27  0.205  
#>  6 2        <tibble [1 × 3]> iv1          0.0123     0.0601     0.206 0.837  
#>  7 2        <tibble [1 × 3]> mod         -0.0236     0.0595    -0.396 0.692  
#>  8 2        <tibble [1 × 3]> iv1:mod      0.0928     0.0628     1.48  0.141  
#>  9 3        <tibble [1 × 3]> (Intercept) -0.158      0.0578    -2.74  0.00650
#> 10 3        <tibble [1 × 3]> iv2          0.0339     0.0614     0.553 0.581  
#> # … with 182 more rows

You can also choose to expand your specification blueprint with .unpack_specs = TRUE to see which decisions produced what result:

multiverse_results |> 
  reveal(.what = lm_fitted, .which = lm_tidy, .unpack_specs = TRUE)
#> # A tibble: 192 × 13
#>    decision ivs   dvs   include1    inclu…¹ inclu…² model model…³ term  estimate
#>    <chr>    <chr> <chr> <chr>       <chr>   <chr>   <chr> <chr>   <chr>    <dbl>
#>  1 1        iv1   dv1   include1 =… includ… scale(… lm(d… linear… (Int… -0.157  
#>  2 1        iv1   dv1   include1 =… includ… scale(… lm(d… linear… iv1   -0.0717 
#>  3 1        iv1   dv1   include1 =… includ… scale(… lm(d… linear… mod    0.00588
#>  4 1        iv1   dv1   include1 =… includ… scale(… lm(d… linear… iv1:…  0.0463 
#>  5 2        iv1   dv2   include1 =… includ… scale(… lm(d… linear… (Int… -0.0769 
#>  6 2        iv1   dv2   include1 =… includ… scale(… lm(d… linear… iv1    0.0123 
#>  7 2        iv1   dv2   include1 =… includ… scale(… lm(d… linear… mod   -0.0236 
#>  8 2        iv1   dv2   include1 =… includ… scale(… lm(d… linear… iv1:…  0.0928 
#>  9 3        iv2   dv1   include1 =… includ… scale(… lm(d… linear… (Int… -0.158  
#> 10 3        iv2   dv1   include1 =… includ… scale(… lm(d… linear… iv2    0.0339 
#> # … with 182 more rows, 3 more variables: std.error <dbl>, statistic <dbl>,
#> #   p.value <dbl>, and abbreviated variable names ¹​include2, ²​include3,
#> #   ³​model_meta
…
If we were interested in all the terms of the model, we can leverage group_by further:

multiverse_results |> 
  reveal(.what = lm_fitted, .which = lm_tidy, .unpack_specs = TRUE) |> 
  group_by(term, ivs, dvs) |> 
  condense(estimate, list(mean = mean, median = median))
#> # A tibble: 24 × 5
#> # Groups:   term, ivs [12]
#>    term        ivs   dvs   estimate_mean estimate_median
#>    <chr>       <chr> <chr>         <dbl>           <dbl>
#>  1 (Intercept) iv1   dv1         -0.127          -0.127 
#>  2 (Intercept) iv1   dv2         -0.0505         -0.0506
#>  3 (Intercept) iv2   dv1         -0.127          -0.127 
#>  4 (Intercept) iv2   dv2         -0.0495         -0.0495
#>  5 (Intercept) iv3   dv1         -0.134          -0.134 
#>  6 (Intercept) iv3   dv2         -0.0484         -0.0486
#>  7 iv1         iv1   dv1         -0.0675         -0.0700
#>  8 iv1         iv1   dv2          0.0160          0.0137
#>  9 iv1:mod     iv1   dv1          0.0607          0.0587
#> 10 iv1:mod     iv1   dv2          0.0756          0.0744
#> # … with 14 more rows
…
