Defining an Analysis Pipeline Blueprint • multitool
…
create_blueprint_graph(full_pipeline)
#> No subgroups in your pipeline
#> no descriptives
#> you have no preprocessing steps in your pipeline
#> you have no post processing steps in your pipeline

The final step in making your blueprint is expanding all your
specifications into all possible combinations. You can do this by
calling expand_decisions() at the end of your blueprint
pipeline:

expanded_pipeline <- expand_decisions(full_pipeline)

expanded_pipeline
#> # A tibble: 48 × 4
#>    decision variables        filters          models          
#>    <chr>    <list>           <list>           <list>          
#>  1 1        <tibble [1 × 2]> <tibble [1 × 3]> <tibble [1 × 3]>
#>  2 2        <tibble [1 × 2]> <tibble [1 × 3]> <tibble [1 × 3]>
#>  3 3        <tibble [1 × 2]> <tibble [1 × 3]> <tibble [1 × 3]>
#>  4 4        <tibble [1 × 2]> <tibble [1 × 3]> <tibble [1 × 3]>
#>  5 5        <tibble [1 × 2]> <tibble [1 × 3]> <tibble [1 × 3]>
#>  6 6        <tibble [1 × 2]> <tibble [1 × 3]> <tibble [1 × 3]>
#>  7 7        <tibble [1 × 2]> <tibble [1 × 3]> <tibble [1 × 3]>
#>  8 8        <tibble [1 × 2]> <tibble [1 × 3]> <tibble [1 × 3]>
#>  9 9        <tibble [1 × 2]> <tibble [1 × 3]> <tibble [1 × 3]>
#> 10 10       <tibble [1 × 2]> <tibble [1 × 3]> <tibble [1 × 3]>
#> # ℹ 38 more rows
…
Note that we have 3 exclusions (each with two combinations), 3
versions of our predictor, and 2 versions of our outcome. This means our
blueprint should have 2*2*2*3*2 or 48 rows, which
corresponds with our expanded pipeline:

2*2*2*3*2 == nrow(expanded_pipeline)
#> [1] TRUE

Our blueprint uses list columns to organize information. You can view
each list column by using
tidyr::unnest(<column name>). For example, we can
look at the filters:

expanded_pipeline |> unnest(filters)
#> # A tibble: 48 × 6
#>    decision variables        include1      include2      include3       models  
#>    <chr>    <list>           <chr>         <chr>         <chr>          <list>  
#>  1 1        <tibble [1 × 2]> include1 == 0 include2 != 3 include3 > -2… <tibble>
#>  2 2        <tibble [1 × 2]> include1 == 0 include2 != 3 include3 > -2… <tibble>
#>  3 3        <tibble [1 × 2]> include1 == 0 include2 != 3 include3 > -2… <tibble>
#>  4 4        <tibble [1 × 2]> include1 == 0 include2 != 3 include3 > -2… <tibble>
#>  5 5        <tibble [1 × 2]> include1 == 0 include2 != 3 include3 > -2… <tibble>
#>  6 6        <tibble [1 × 2]> include1 == 0 include2 != 3 include3 > -2… <tibble>
#>  7 7        <tibble [1 × 2]> include1 == 0 include2 != 3 include3 %in%… <tibble>
#>  8 8        <tibble [1 × 2]> include1 == 0 include2 != 3 include3 %in%… <tibble>
#>  9 9        <tibble [1 × 2]> include1 == 0 include2 != 3 include3 %in%… <tibble>
#> 10 10       <tibble [1 × 2]> include1 == 0 include2 != 3 include3 %in%… <tibble>
#> # ℹ 38 more rows

Or we could look at the models:

expanded_pipeline |> unnest(models)
#> # A tibble: 48 × 6
#>    decision variables        filters          model        model_meta model_args
#>    <chr>    <list>           <list>           <chr>        <chr>      <chr>     
#>  1 1        <tibble [1 × 2]> <tibble [1 × 3]> lm(dv1 ~ iv… linear mo… ""        
#>  2 2        <tibble [1 × 2]> <tibble [1 × 3]> lm(dv2 ~ iv… linear mo… ""        
#>  3 3        <tibble [1 × 2]> <tibble [1 × 3]> lm(dv1 ~ iv… linear mo… ""        
#>  4 4        <tibble [1 × 2]> <tibble [1 × 3]> lm(dv2 ~ iv… linear mo… ""        
#>  5 5        <tibble [1 × 2]> <tibble [1 × 3]> lm(dv1 ~ iv… linear mo… ""        
#>  6 6        <tibble [1 × 2]> <tibble [1 × 3]> lm(dv2 ~ iv… linear mo… ""        
#>  7 7        <tibble [1 × 2]> <tibble [1 × 3]> lm(dv1 ~ iv… linear mo… ""        
#>  8 8        <tibble [1 × 2]> <tibble [1 × 3]> lm(dv2 ~ iv… linear mo… ""        
#>  9 9        <tibble [1 × 2]> <tibble [1 × 3]> lm(dv1 ~ iv… linear mo… ""        
#> 10 10       <tibble [1 × 2]> <tibble [1 × 3]> lm(dv2 ~ iv… linear mo… ""        
#> # ℹ 38 more rows

Notice that, with the glue::glue() syntax, different
versions of our predictors and outcomes were inserted appropriately. You
can check their correspondence by using unnest() on both
the models and variable list columns:

expanded_pipeline |> unnest(c(variables, models))
#> # A tibble: 48 × 7
#>    decision ivs   dvs   filters          model             model_meta model_args
#>    <chr>    <chr> <chr> <list>           <chr>             <chr>      <chr>     
#>  1 1        iv1   dv1   <tibble [1 × 3]> lm(dv1 ~ iv1 * m… linear mo… ""        
#>  2 2        iv1   dv2   <tibble [1 × 3]> lm(dv2 ~ iv1 * m… linear mo… ""        
#>  3 3        iv2   dv1   <tibble [1 × 3]> lm(dv1 ~ iv2 * m… linear mo… ""        
#>  4 4        iv2   dv2   <tibble [1 × 3]> lm(dv2 ~ iv2 * m… linear mo… ""        
#>  5 5        iv3   dv1   <tibble [1 × 3]> lm(dv1 ~ iv3 * m… linear mo… ""        
#>  6 6        iv3   dv2   <tibble [1 × 3]> lm(dv2 ~ iv3 * m… linear mo… ""        
#>  7 7        iv1   dv1   <tibble [1 × 3]> lm(dv1 ~ iv1 * m… linear mo… ""        
#>  8 8        iv1   dv2   <tibble [1 × 3]> lm(dv2 ~ iv1 * m… linear mo… ""        
#>  9 9        iv2   dv1   <tibble [1 × 3]> lm(dv1 ~ iv2 * m… linear mo… ""        
#> 10 10       iv2   dv2   <tibble [1 × 3]> lm(dv2 ~ iv2 * m… linear mo… ""        
#> # ℹ 38 more rows
…
