Run your Pipeline • multitool
…
# expand the pipeline
expanded_pipeline <- expand_decisions(full_pipeline)

# Run the multiverse
multiverse_results <- run_multiverse(expanded_pipeline)

multiverse_results
#> # A tibble: 48 × 3
#>    decision specifications   model_fitted    
#>    <chr>    <list>           <list>          
#>  1 1        <tibble [1 × 4]> <tibble [1 × 5]>
#>  2 2        <tibble [1 × 4]> <tibble [1 × 5]>
#>  3 3        <tibble [1 × 4]> <tibble [1 × 5]>
#>  4 4        <tibble [1 × 4]> <tibble [1 × 5]>
#>  5 5        <tibble [1 × 4]> <tibble [1 × 5]>
#>  6 6        <tibble [1 × 4]> <tibble [1 × 5]>
#>  7 7        <tibble [1 × 4]> <tibble [1 × 5]>
#>  8 8        <tibble [1 × 4]> <tibble [1 × 5]>
#>  9 9        <tibble [1 × 4]> <tibble [1 × 5]>
#> 10 10       <tibble [1 × 4]> <tibble [1 × 5]>
#> # ℹ 38 more rows
…
Here, our model used lm() so inside our
model_fitted list column, we have our results are contained
in lm_* columns.

Unpacking a multiverse analysis

There are two main ways to unpack and examine multitool
results. The first is by using tidyr::unnest() (similar to
unpacking the specification blueprint earlier).

Unnest

multiverse_results |> unnest(model_fitted)
#> # A tibble: 48 × 7
#>    decision specifications   lm_code       lm_params  lm_performance lm_warnings
#>    <chr>    <list>           <glue>        <list>     <list>         <list>     
#>  1 1        <tibble [1 × 4]> the_data |> … <prmtrs_m> <prfrmnc_>     <tibble>   
#>  2 2        <tibble [1 × 4]> the_data |> … <prmtrs_m> <prfrmnc_>     <tibble>   
#>  3 3        <tibble [1 × 4]> the_data |> … <prmtrs_m> <prfrmnc_>     <tibble>   
#>  4 4        <tibble [1 × 4]> the_data |> … <prmtrs_m> <prfrmnc_>     <tibble>   
#>  5 5        <tibble [1 × 4]> the_data |> … <prmtrs_m> <prfrmnc_>     <tibble>   
#>  6 6        <tibble [1 × 4]> the_data |> … <prmtrs_m> <prfrmnc_>     <tibble>   
#>  7 7        <tibble [1 × 4]> the_data |> … <prmtrs_m> <prfrmnc_>     <tibble>   
#>  8 8        <tibble [1 × 4]> the_data |> … <prmtrs_m> <prfrmnc_>     <tibble>   
#>  9 9        <tibble [1 × 4]> the_data |> … <prmtrs_m> <prfrmnc_>     <tibble>   
#> 10 10       <tibble [1 × 4]> the_data |> … <prmtrs_m> <prfrmnc_>     <tibble>   
#> # ℹ 38 more rows
#> # ℹ 1 more variable: lm_messages <list>
…
The first column is always the full code pipeline that produced the
results. In our example, this is lm_code. The next are
results passed to broom (if
tidy and/or glance methods exist). For
lm, we have lm_tidy and
lm_glance. Notice the naming convention:
<model function>_params and
<model function>_performance.

multiverse_results |> 
  unnest(model_fitted) |> 
  unnest(lm_params)
#> # A tibble: 192 × 15
#>    decision specifications   lm_code parameter coefficient     se    ci   ci_low
#>    <chr>    <list>           <glue>  <chr>           <dbl>  <dbl> <dbl>    <dbl>
#>  1 1        <tibble [1 × 4]> the_da… (Interce…    -0.115   0.0615  0.95 -0.236  
#>  2 1        <tibble [1 × 4]> the_da… iv1           0.0290  0.0602  0.95 -0.0895 
#>  3 1        <tibble [1 × 4]> the_da… mod           0.0557  0.0638  0.95 -0.0699 
#>  4 1        <tibble [1 × 4]> the_da… iv1:mod       0.0703  0.0614  0.95 -0.0505 
#>  5 2        <tibble [1 × 4]> the_da… (Interce…     0.114   0.0607  0.95 -0.00540
#>  6 2        <tibble [1 × 4]> the_da… iv1          -0.0420  0.0594  0.95 -0.159  
#>  7 2        <tibble [1 × 4]> the_da… mod           0.00662 0.0630  0.95 -0.117  
#>  8 2        <tibble [1 × 4]> the_da… iv1:mod       0.0698  0.0606  0.95 -0.0495 
#>  9 3        <tibble [1 × 4]> the_da… (Interce…    -0.119   0.0629  0.95 -0.243  
#> 10 3        <tibble [1 × 4]> the_da… iv2          -0.0234  0.0648  0.95 -0.151  
#> # ℹ 182 more rows
#> # ℹ 7 more variables: ci_high <dbl>, t <dbl>, df_error <int>, p <dbl>,
#> #   lm_performance <list>, lm_warnings <list>, lm_messages <list>

The lm_params (or
<model function>_params) column gives us the main
results of lm() per decision. These include terms,
estimates, standard errors, and p-values. lm_performance
(or <model function>_performance) column gives us
model fit statistics (among other things):

multiverse_results |> 
  unnest(model_fitted) |>
  unnest(lm_performance)
#> # A tibble: 48 × 13
#>    decision specifications   lm_code        lm_params    aic  aicc   bic      r2
#>    <chr>    <list>           <glue>         <list>     <dbl> <dbl> <dbl>   <dbl>
#>  1 1        <tibble [1 × 4]> the_data |> f… <prmtrs_m>  906.  906.  925. 0.00638
#>  2 2        <tibble [1 × 4]> the_data |> f… <prmtrs_m>  898.  898.  917. 0.00744
#>  3 3        <tibble [1 × 4]> the_data |> f… <prmtrs_m>  906.  907.  925. 0.00552
#>  4 4        <tibble [1 × 4]> the_data |> f… <prmtrs_m>  900.  900.  918. 0.00236
#>  5 5        <tibble [1 × 4]> the_data |> f… <prmtrs_m>  907.  907.  925. 0.00491
#>  6 6        <tibble [1 × 4]> the_data |> f… <prmtrs_m>  900.  900.  919. 0.00103
#>  7 7        <tibble [1 × 4]> the_data |> f… <prmtrs_m>  910.  911.  929. 0.00615
#>  8 8        <tibble [1 × 4]> the_data |> f… <prmtrs_m>  906.  906.  925. 0.00655
#>  9 9        <tibble [1 × 4]> the_data |> f… <prmtrs_m>  911.  911.  929. 0.00519
#> 10 10       <tibble [1 × 4]> the_data |> f… <prmtrs_m>  908.  908.  926. 0.00181
#> # ℹ 38 more rows
#> # ℹ 5 more variables: r2_adjusted <dbl>, rmse <dbl>, sigma <dbl>,
#> #   lm_warnings <list>, lm_messages <list>

Reveal

I wrote wrappers around the unnest() workflow. The main
function is reveal(). Pass a multiverse results
tibble to reveal() and tell it which columns
to grab by indicating the column name in the .what
argument:

multiverse_results |> 
  reveal(.what = model_fitted)
#> # A tibble: 48 × 7
#>    decision specifications   lm_code       lm_params  lm_performance lm_warnings
#>    <chr>    <list>           <glue>        <list>     <list>         <list>     
#>  1 1        <tibble [1 × 4]> the_data |> … <prmtrs_m> <prfrmnc_>     <tibble>   
#>  2 2        <tibble [1 × 4]> the_data |> … <prmtrs_m> <prfrmnc_>     <tibble>   
#>  3 3        <tibble [1 × 4]> the_data |> … <prmtrs_m> <prfrmnc_>     <tibble>   
#>  4 4        <tibble [1 × 4]> the_data |> … <prmtrs_m> <prfrmnc_>     <tibble>   
#>  5 5        <tibble [1 × 4]> the_data |> … <prmtrs_m> <prfrmnc_>     <tibble>   
#>  6 6        <tibble [1 × 4]> the_data |> … <prmtrs_m> <prfrmnc_>     <tibble>   
#>  7 7        <tibble [1 × 4]> the_data |> … <prmtrs_m> <prfrmnc_>     <tibble>   
#>  8 8        <tibble [1 × 4]> the_data |> … <prmtrs_m> <prfrmnc_>     <tibble>   
#>  9 9        <tibble [1 × 4]> the_data |> … <prmtrs_m> <prfrmnc_>     <tibble>   
#> 10 10       <tibble [1 × 4]> the_data |> … <prmtrs_m> <prfrmnc_>     <tibble>   
#> # ℹ 38 more rows
#> # ℹ 1 more variable: lm_messages <list>

If you want to get straight to a tidied result you can specify a
sub-list with the .which argument:

multiverse_results |> 
  reveal(.what = model_fitted, .which = lm_params)
#> # A tibble: 192 × 11
#>    decision specifications   parameter coefficient     se    ci   ci_low ci_high
#>    <chr>    <list>           <chr>           <dbl>  <dbl> <dbl>    <dbl>   <dbl>
#>  1 1        <tibble [1 × 4]> (Interce…    -0.115   0.0615  0.95 -0.236   0.00598
#>  2 1        <tibble [1 × 4]> iv1           0.0290  0.0602  0.95 -0.0895  0.147  
#>  3 1        <tibble [1 × 4]> mod           0.0557  0.0638  0.95 -0.0699  0.181  
#>  4 1        <tibble [1 × 4]> iv1:mod       0.0703  0.0614  0.95 -0.0505  0.191  
#>  5 2        <tibble [1 × 4]> (Interce…     0.114   0.0607  0.95 -0.00540 0.234  
#>  6 2        <tibble [1 × 4]> iv1          -0.0420  0.0594  0.95 -0.159   0.0750 
#>  7 2        <tibble [1 × 4]> mod           0.00662 0.0630  0.95 -0.117   0.131  
#>  8 2        <tibble [1 × 4]> iv1:mod       0.0698  0.0606  0.95 -0.0495  0.189  
#>  9 3        <tibble [1 × 4]> (Interce…    -0.119   0.0629  0.95 -0.243   0.00506
#> 10 3        <tibble [1 × 4]> iv2          -0.0234  0.0648  0.95 -0.151   0.104  
#> # ℹ 182 more rows
#> # ℹ 3 more variables: t <dbl>, df_error <int>, p <dbl>

You can also choose to expand your specification blueprint with
.unpack_specs = TRUE to see which decisions produced what
result:

multiverse_results |> 
  reveal(.what = model_fitted, .which = lm_params, .unpack_specs = TRUE)
#> # A tibble: 192 × 18
#>    decision ivs   dvs   include1  include2 include3 model model_meta filter_code
#>    <chr>    <chr> <chr> <chr>     <chr>    <chr>    <chr> <chr>      <glue>     
#>  1 1        iv1   dv1   include1… include… include… lm(d… linear mo… the_data |…
#>  2 1        iv1   dv1   include1… include… include… lm(d… linear mo… the_data |…
#>  3 1        iv1   dv1   include1… include… include… lm(d… linear mo… the_data |…
#>  4 1        iv1   dv1   include1… include… include… lm(d… linear mo… the_data |…
#>  5 2        iv1   dv2   include1… include… include… lm(d… linear mo… the_data |…
#>  6 2        iv1   dv2   include1… include… include… lm(d… linear mo… the_data |…
#>  7 2        iv1   dv2   include1… include… include… lm(d… linear mo… the_data |…
#>  8 2        iv1   dv2   include1… include… include… lm(d… linear mo… the_data |…
#>  9 3        iv2   dv1   include1… include… include… lm(d… linear mo… the_data |…
#> 10 3        iv2   dv1   include1… include… include… lm(d… linear mo… the_data |…
#> # ℹ 182 more rows
#> # ℹ 9 more variables: parameter <chr>, coefficient <dbl>, se <dbl>, ci <dbl>,
#> #   ci_low <dbl>, ci_high <dbl>, t <dbl>, df_error <int>, p <dbl>
…
If we were interested in all the terms of the model, we can leverage
group_by further:

multiverse_results |> 
  reveal(.what = model_fitted, .which = lm_params, .unpack_specs = TRUE) |> 
  group_by(parameter, ivs, dvs) |> 
  condense(coefficient, list(mean = mean, median = median))
#> # A tibble: 24 × 5
#> # Groups:   parameter, ivs [12]
#>    parameter   ivs   dvs   coefficient_mean coefficient_median
#>    <chr>       <chr> <chr>            <dbl>              <dbl>
#>  1 (Intercept) iv1   dv1            -0.0973            -0.0974
#>  2 (Intercept) iv1   dv2             0.100              0.0951
#>  3 (Intercept) iv2   dv1            -0.0998            -0.0999
#>  4 (Intercept) iv2   dv2             0.106              0.0997
#>  5 (Intercept) iv3   dv1            -0.0910            -0.0920
#>  6 (Intercept) iv3   dv2             0.103              0.0975
#>  7 iv1         iv1   dv1             0.0474             0.0445
#>  8 iv1         iv1   dv2            -0.0206            -0.0200
#>  9 iv1:mod     iv1   dv1             0.0345             0.0299
#> 10 iv1:mod     iv1   dv2             0.0673             0.0653
#> # ℹ 14 more rows
…
